…
    ## Calculating cluster 14

    ## Calculating cluster 15

    ## Calculating cluster 16

    ## Calculating cluster 17

``` r
bm.markers %>%
  group_by(cluster) %>%
  slice_max(n = 2, order_by = avg_log2FC)
```

    ## # A tibble: 36 × 7
    ## # Groups:   cluster [18]
    ##    p_val avg_log2FC pct.1 pct.2 p_val_adj cluster gene         
    ##    <dbl>      <dbl> <dbl> <dbl>     <dbl> <fct>   <chr>        
    ##  1     0       4.49 0.986 0.338         0 0       S100A9       
    ##  2     0       4.36 0.981 0.349         0 0       S100A8       
    ##  3     0       1.17 0.672 0.339         0 1       NOSIP        
    ##  4     0       1.06 0.361 0.105         0 1       CCR7         
    ##  5     0       2.18 0.659 0.051         0 2       CD8B         
    ##  6     0       1.53 0.354 0.006         0 2       RP11-291B21.2
    ##  7     0       1.54 0.756 0.251         0 3       IL7R         
    ##  8     0       1.52 0.872 0.342         0 3       IL32         
    ##  9     0       3.05 0.753 0.028         0 4       IGHD         
    ## 10     0       2.81 0.815 0.089         0 4       CD79A        
    ## # ℹ 26 more rows
…
